^E:\DEV\__REPOSITORY__\_MM8_PLUGINS\LUGGAGE\RELEASE\DLLMAIN.OBJ|E:\DEV\__REPOSITORY__\_MM8_PLUGINS\LUGGAGE\RELEASE\PCH.OBJ
/OUT:"E:\DEV\__REPOSITORY__\_MM8_PLUGINS\LUGGAGE\RELEASE\LUGGAGE.DLL" /NOLOGO KERNEL32.LIB USER32.LIB GDI32.LIB WINSPOOL.LIB COMDLG32.LIB ADVAPI32.LIB SHELL32.LIB OLE32.LIB OLEAUT32.LIB UUID.LIB ODBC32.LIB ODBCCP32.LIB /MANIFEST /MANIFESTUAC:NO /manifest:embed /DEBUG /PDB:"E:\DEV\__REPOSITORY__\_MM8_PLUGINS\LUGGAGE\RELEASE\LUGGAGE.PDB" /SUBSYSTEM:WINDOWS /OPT:REF /OPT:ICF /LTCG:incremental /LTCGOUT:"RELEASE\LUGGAGE.IOBJ" /TLBID:1 /DYNAMICBASE /NXCOMPAT /IMPLIB:"E:\DEV\__REPOSITORY__\_MM8_PLUGINS\LUGGAGE\RELEASE\LUGGAGE.LIB" /MACHINE:X86 /SAFESEH /DLL RELEASE\DLLMAIN.OBJ
RELEASE\PCH.OBJ
