^E:\DEV\__REPOSITORY__\_MM8_PLUGINS\MMEXTENSION-MASTER\SRC\MMEXTENSION\LUASOCKET\SRC\AUXILIAR.C
/c /I..\LUAJIT\SRC_INC /nologo /W3 /WX- /diagnostics:column /O2 /Oy- /D WIN32 /D NDEBUG /D _WINDOWS /D _USRDLL /D LUASOCKET_EXPORTS /D "LUASOCKET_API=__declspec(dllexport)" /D LUASOCKET_DEBUG /D _VC80_UPGRADE=0x0710 /D _MBCS /Gm- /EHsc /MT /GS /fp:precise /Zc:wchar_t /Zc:forScope /Zc:inline /Fo"./TMP\\" /Fd".\SOCKET.PDB" /external:W3 /Gd /TC /analyze- /FC E:\DEV\__REPOSITORY__\_MM8_PLUGINS\MMEXTENSION-MASTER\SRC\MMEXTENSION\LUASOCKET\SRC\AUXILIAR.C
^E:\DEV\__REPOSITORY__\_MM8_PLUGINS\MMEXTENSION-MASTER\SRC\MMEXTENSION\LUASOCKET\SRC\BUFFER.C
/c /I..\LUAJIT\SRC_INC /nologo /W3 /WX- /diagnostics:column /O2 /Oy- /D WIN32 /D NDEBUG /D _WINDOWS /D _USRDLL /D LUASOCKET_EXPORTS /D "LUASOCKET_API=__declspec(dllexport)" /D LUASOCKET_DEBUG /D _VC80_UPGRADE=0x0710 /D _MBCS /Gm- /EHsc /MT /GS /fp:precise /Zc:wchar_t /Zc:forScope /Zc:inline /Fo"./TMP\\" /Fd".\SOCKET.PDB" /external:W3 /Gd /TC /analyze- /FC E:\DEV\__REPOSITORY__\_MM8_PLUGINS\MMEXTENSION-MASTER\SRC\MMEXTENSION\LUASOCKET\SRC\BUFFER.C
^E:\DEV\__REPOSITORY__\_MM8_PLUGINS\MMEXTENSION-MASTER\SRC\MMEXTENSION\LUASOCKET\SRC\EXCEPT.C
/c /I..\LUAJIT\SRC_INC /nologo /W3 /WX- /diagnostics:column /O2 /Oy- /D WIN32 /D NDEBUG /D _WINDOWS /D _USRDLL /D LUASOCKET_EXPORTS /D "LUASOCKET_API=__declspec(dllexport)" /D LUASOCKET_DEBUG /D _VC80_UPGRADE=0x0710 /D _MBCS /Gm- /EHsc /MT /GS /fp:precise /Zc:wchar_t /Zc:forScope /Zc:inline /Fo"./TMP\\" /Fd".\SOCKET.PDB" /external:W3 /Gd /TC /analyze- /FC E:\DEV\__REPOSITORY__\_MM8_PLUGINS\MMEXTENSION-MASTER\SRC\MMEXTENSION\LUASOCKET\SRC\EXCEPT.C
^E:\DEV\__REPOSITORY__\_MM8_PLUGINS\MMEXTENSION-MASTER\SRC\MMEXTENSION\LUASOCKET\SRC\INET.C
/c /I..\LUAJIT\SRC_INC /nologo /W3 /WX- /diagnostics:column /O2 /Oy- /D WIN32 /D NDEBUG /D _WINDOWS /D _USRDLL /D LUASOCKET_EXPORTS /D "LUASOCKET_API=__declspec(dllexport)" /D LUASOCKET_DEBUG /D _VC80_UPGRADE=0x0710 /D _MBCS /Gm- /EHsc /MT /GS /fp:precise /Zc:wchar_t /Zc:forScope /Zc:inline /Fo"./TMP\\" /Fd".\SOCKET.PDB" /external:W3 /Gd /TC /analyze- /FC E:\DEV\__REPOSITORY__\_MM8_PLUGINS\MMEXTENSION-MASTER\SRC\MMEXTENSION\LUASOCKET\SRC\INET.C
^E:\DEV\__REPOSITORY__\_MM8_PLUGINS\MMEXTENSION-MASTER\SRC\MMEXTENSION\LUASOCKET\SRC\IO.C
/c /I..\LUAJIT\SRC_INC /nologo /W3 /WX- /diagnostics:column /O2 /Oy- /D WIN32 /D NDEBUG /D _WINDOWS /D _USRDLL /D LUASOCKET_EXPORTS /D "LUASOCKET_API=__declspec(dllexport)" /D LUASOCKET_DEBUG /D _VC80_UPGRADE=0x0710 /D _MBCS /Gm- /EHsc /MT /GS /fp:precise /Zc:wchar_t /Zc:forScope /Zc:inline /Fo"./TMP\\" /Fd".\SOCKET.PDB" /external:W3 /Gd /TC /analyze- /FC E:\DEV\__REPOSITORY__\_MM8_PLUGINS\MMEXTENSION-MASTER\SRC\MMEXTENSION\LUASOCKET\SRC\IO.C
^E:\DEV\__REPOSITORY__\_MM8_PLUGINS\MMEXTENSION-MASTER\SRC\MMEXTENSION\LUASOCKET\SRC\LUASOCKET.C
/c /I..\LUAJIT\SRC_INC /nologo /W3 /WX- /diagnostics:column /O2 /Oy- /D WIN32 /D NDEBUG /D _WINDOWS /D _USRDLL /D LUASOCKET_EXPORTS /D "LUASOCKET_API=__declspec(dllexport)" /D LUASOCKET_DEBUG /D _VC80_UPGRADE=0x0710 /D _MBCS /Gm- /EHsc /MT /GS /fp:precise /Zc:wchar_t /Zc:forScope /Zc:inline /Fo"./TMP\\" /Fd".\SOCKET.PDB" /external:W3 /Gd /TC /analyze- /FC E:\DEV\__REPOSITORY__\_MM8_PLUGINS\MMEXTENSION-MASTER\SRC\MMEXTENSION\LUASOCKET\SRC\LUASOCKET.C
^E:\DEV\__REPOSITORY__\_MM8_PLUGINS\MMEXTENSION-MASTER\SRC\MMEXTENSION\LUASOCKET\SRC\OPTIONS.C
/c /I..\LUAJIT\SRC_INC /nologo /W3 /WX- /diagnostics:column /O2 /Oy- /D WIN32 /D NDEBUG /D _WINDOWS /D _USRDLL /D LUASOCKET_EXPORTS /D "LUASOCKET_API=__declspec(dllexport)" /D LUASOCKET_DEBUG /D _VC80_UPGRADE=0x0710 /D _MBCS /Gm- /EHsc /MT /GS /fp:precise /Zc:wchar_t /Zc:forScope /Zc:inline /Fo"./TMP\\" /Fd".\SOCKET.PDB" /external:W3 /Gd /TC /analyze- /FC E:\DEV\__REPOSITORY__\_MM8_PLUGINS\MMEXTENSION-MASTER\SRC\MMEXTENSION\LUASOCKET\SRC\OPTIONS.C
^E:\DEV\__REPOSITORY__\_MM8_PLUGINS\MMEXTENSION-MASTER\SRC\MMEXTENSION\LUASOCKET\SRC\SELECT.C
/c /I..\LUAJIT\SRC_INC /nologo /W3 /WX- /diagnostics:column /O2 /Oy- /D WIN32 /D NDEBUG /D _WINDOWS /D _USRDLL /D LUASOCKET_EXPORTS /D "LUASOCKET_API=__declspec(dllexport)" /D LUASOCKET_DEBUG /D _VC80_UPGRADE=0x0710 /D _MBCS /Gm- /EHsc /MT /GS /fp:precise /Zc:wchar_t /Zc:forScope /Zc:inline /Fo"./TMP\\" /Fd".\SOCKET.PDB" /external:W3 /Gd /TC /analyze- /FC E:\DEV\__REPOSITORY__\_MM8_PLUGINS\MMEXTENSION-MASTER\SRC\MMEXTENSION\LUASOCKET\SRC\SELECT.C
^E:\DEV\__REPOSITORY__\_MM8_PLUGINS\MMEXTENSION-MASTER\SRC\MMEXTENSION\LUASOCKET\SRC\TCP.C
/c /I..\LUAJIT\SRC_INC /nologo /W3 /WX- /diagnostics:column /O2 /Oy- /D WIN32 /D NDEBUG /D _WINDOWS /D _USRDLL /D LUASOCKET_EXPORTS /D "LUASOCKET_API=__declspec(dllexport)" /D LUASOCKET_DEBUG /D _VC80_UPGRADE=0x0710 /D _MBCS /Gm- /EHsc /MT /GS /fp:precise /Zc:wchar_t /Zc:forScope /Zc:inline /Fo"./TMP\\" /Fd".\SOCKET.PDB" /external:W3 /Gd /TC /analyze- /FC E:\DEV\__REPOSITORY__\_MM8_PLUGINS\MMEXTENSION-MASTER\SRC\MMEXTENSION\LUASOCKET\SRC\TCP.C
^E:\DEV\__REPOSITORY__\_MM8_PLUGINS\MMEXTENSION-MASTER\SRC\MMEXTENSION\LUASOCKET\SRC\TIMEOUT.C
/c /I..\LUAJIT\SRC_INC /nologo /W3 /WX- /diagnostics:column /O2 /Oy- /D WIN32 /D NDEBUG /D _WINDOWS /D _USRDLL /D LUASOCKET_EXPORTS /D "LUASOCKET_API=__declspec(dllexport)" /D LUASOCKET_DEBUG /D _VC80_UPGRADE=0x0710 /D _MBCS /Gm- /EHsc /MT /GS /fp:precise /Zc:wchar_t /Zc:forScope /Zc:inline /Fo"./TMP\\" /Fd".\SOCKET.PDB" /external:W3 /Gd /TC /analyze- /FC E:\DEV\__REPOSITORY__\_MM8_PLUGINS\MMEXTENSION-MASTER\SRC\MMEXTENSION\LUASOCKET\SRC\TIMEOUT.C
^E:\DEV\__REPOSITORY__\_MM8_PLUGINS\MMEXTENSION-MASTER\SRC\MMEXTENSION\LUASOCKET\SRC\UDP.C
/c /I..\LUAJIT\SRC_INC /nologo /W3 /WX- /diagnostics:column /O2 /Oy- /D WIN32 /D NDEBUG /D _WINDOWS /D _USRDLL /D LUASOCKET_EXPORTS /D "LUASOCKET_API=__declspec(dllexport)" /D LUASOCKET_DEBUG /D _VC80_UPGRADE=0x0710 /D _MBCS /Gm- /EHsc /MT /GS /fp:precise /Zc:wchar_t /Zc:forScope /Zc:inline /Fo"./TMP\\" /Fd".\SOCKET.PDB" /external:W3 /Gd /TC /analyze- /FC E:\DEV\__REPOSITORY__\_MM8_PLUGINS\MMEXTENSION-MASTER\SRC\MMEXTENSION\LUASOCKET\SRC\UDP.C
^E:\DEV\__REPOSITORY__\_MM8_PLUGINS\MMEXTENSION-MASTER\SRC\MMEXTENSION\LUASOCKET\SRC\WSOCKET.C
/c /I..\LUAJIT\SRC_INC /nologo /W3 /WX- /diagnostics:column /O2 /Oy- /D WIN32 /D NDEBUG /D _WINDOWS /D _USRDLL /D LUASOCKET_EXPORTS /D "LUASOCKET_API=__declspec(dllexport)" /D LUASOCKET_DEBUG /D _VC80_UPGRADE=0x0710 /D _MBCS /Gm- /EHsc /MT /GS /fp:precise /Zc:wchar_t /Zc:forScope /Zc:inline /Fo"./TMP\\" /Fd".\SOCKET.PDB" /external:W3 /Gd /TC /analyze- /FC E:\DEV\__REPOSITORY__\_MM8_PLUGINS\MMEXTENSION-MASTER\SRC\MMEXTENSION\LUASOCKET\SRC\WSOCKET.C
