E:\DEV\__REPOSITORY__\_MM8_Plugins\MMExtension-master\Src\MMExtension\luasocket\src\auxiliar.c;E:\DEV\__REPOSITORY__\_MM8_Plugins\MMExtension-master\Src\MMExtension\luasocket\tmp\auxiliar.obj
E:\DEV\__REPOSITORY__\_MM8_Plugins\MMExtension-master\Src\MMExtension\luasocket\src\buffer.c;E:\DEV\__REPOSITORY__\_MM8_Plugins\MMExtension-master\Src\MMExtension\luasocket\tmp\buffer.obj
E:\DEV\__REPOSITORY__\_MM8_Plugins\MMExtension-master\Src\MMExtension\luasocket\src\except.c;E:\DEV\__REPOSITORY__\_MM8_Plugins\MMExtension-master\Src\MMExtension\luasocket\tmp\except.obj
E:\DEV\__REPOSITORY__\_MM8_Plugins\MMExtension-master\Src\MMExtension\luasocket\src\inet.c;E:\DEV\__REPOSITORY__\_MM8_Plugins\MMExtension-master\Src\MMExtension\luasocket\tmp\inet.obj
E:\DEV\__REPOSITORY__\_MM8_Plugins\MMExtension-master\Src\MMExtension\luasocket\src\io.c;E:\DEV\__REPOSITORY__\_MM8_Plugins\MMExtension-master\Src\MMExtension\luasocket\tmp\io.obj
E:\DEV\__REPOSITORY__\_MM8_Plugins\MMExtension-master\Src\MMExtension\luasocket\src\luasocket.c;E:\DEV\__REPOSITORY__\_MM8_Plugins\MMExtension-master\Src\MMExtension\luasocket\tmp\luasocket.obj
E:\DEV\__REPOSITORY__\_MM8_Plugins\MMExtension-master\Src\MMExtension\luasocket\src\options.c;E:\DEV\__REPOSITORY__\_MM8_Plugins\MMExtension-master\Src\MMExtension\luasocket\tmp\options.obj
E:\DEV\__REPOSITORY__\_MM8_Plugins\MMExtension-master\Src\MMExtension\luasocket\src\select.c;E:\DEV\__REPOSITORY__\_MM8_Plugins\MMExtension-master\Src\MMExtension\luasocket\tmp\select.obj
E:\DEV\__REPOSITORY__\_MM8_Plugins\MMExtension-master\Src\MMExtension\luasocket\src\tcp.c;E:\DEV\__REPOSITORY__\_MM8_Plugins\MMExtension-master\Src\MMExtension\luasocket\tmp\tcp.obj
E:\DEV\__REPOSITORY__\_MM8_Plugins\MMExtension-master\Src\MMExtension\luasocket\src\timeout.c;E:\DEV\__REPOSITORY__\_MM8_Plugins\MMExtension-master\Src\MMExtension\luasocket\tmp\timeout.obj
E:\DEV\__REPOSITORY__\_MM8_Plugins\MMExtension-master\Src\MMExtension\luasocket\src\udp.c;E:\DEV\__REPOSITORY__\_MM8_Plugins\MMExtension-master\Src\MMExtension\luasocket\tmp\udp.obj
E:\DEV\__REPOSITORY__\_MM8_Plugins\MMExtension-master\Src\MMExtension\luasocket\src\wsocket.c;E:\DEV\__REPOSITORY__\_MM8_Plugins\MMExtension-master\Src\MMExtension\luasocket\tmp\wsocket.obj
