^E:\DEV\__REPOSITORY__\_MM8_PLUGINS\MMEXTENSION-MASTER\SRC\MMEXTENSION\LUASOCKET\TMP\AUXILIAR.OBJ|E:\DEV\__REPOSITORY__\_MM8_PLUGINS\MMEXTENSION-MASTER\SRC\MMEXTENSION\LUASOCKET\TMP\BUFFER.OBJ|E:\DEV\__REPOSITORY__\_MM8_PLUGINS\MMEXTENSION-MASTER\SRC\MMEXTENSION\LUASOCKET\TMP\EXCEPT.OBJ|E:\DEV\__REPOSITORY__\_MM8_PLUGINS\MMEXTENSION-MASTER\SRC\MMEXTENSION\LUASOCKET\TMP\INET.OBJ|E:\DEV\__REPOSITORY__\_MM8_PLUGINS\MMEXTENSION-MASTER\SRC\MMEXTENSION\LUASOCKET\TMP\IO.OBJ|E:\DEV\__REPOSITORY__\_MM8_PLUGINS\MMEXTENSION-MASTER\SRC\MMEXTENSION\LUASOCKET\TMP\LUASOCKET.OBJ|E:\DEV\__REPOSITORY__\_MM8_PLUGINS\MMEXTENSION-MASTER\SRC\MMEXTENSION\LUASOCKET\TMP\OPTIONS.OBJ|E:\DEV\__REPOSITORY__\_MM8_PLUGINS\MMEXTENSION-MASTER\SRC\MMEXTENSION\LUASOCKET\TMP\SELECT.OBJ|E:\DEV\__REPOSITORY__\_MM8_PLUGINS\MMEXTENSION-MASTER\SRC\MMEXTENSION\LUASOCKET\TMP\TCP.OBJ|E:\DEV\__REPOSITORY__\_MM8_PLUGINS\MMEXTENSION-MASTER\SRC\MMEXTENSION\LUASOCKET\TMP\TIMEOUT.OBJ|E:\DEV\__REPOSITORY__\_MM8_PLUGINS\MMEXTENSION-MASTER\SRC\MMEXTENSION\LUASOCKET\TMP\UDP.OBJ|E:\DEV\__REPOSITORY__\_MM8_PLUGINS\MMEXTENSION-MASTER\SRC\MMEXTENSION\LUASOCKET\TMP\WSOCKET.OBJ
/OUT:".\SOCKET.LIB" /NOLOGO /MACHINE:X86 ./TMP\AUXILIAR.OBJ
./TMP\BUFFER.OBJ
./TMP\EXCEPT.OBJ
./TMP\INET.OBJ
./TMP\IO.OBJ
./TMP\LUASOCKET.OBJ
./TMP\OPTIONS.OBJ
./TMP\SELECT.OBJ
./TMP\TCP.OBJ
./TMP\TIMEOUT.OBJ
./TMP\UDP.OBJ
./TMP\WSOCKET.OBJ
