^E:\DEV\__REPOSITORY__\_MM8_PLUGINS\MAW_FIXES\RELEASE\DLLMAIN.OBJ|E:\DEV\__REPOSITORY__\_MM8_PLUGINS\MAW_FIXES\RELEASE\PCH.OBJ
D:\WINDOWS KITS\10\LIB\10.0.22621.0\UM\X86\KERNEL32.LIB
D:\WINDOWS KITS\10\LIB\10.0.22621.0\UM\X86\USER32.LIB
D:\WINDOWS KITS\10\LIB\10.0.22621.0\UM\X86\GDI32.LIB
D:\WINDOWS KITS\10\LIB\10.0.22621.0\UM\X86\WINSPOOL.LIB
D:\WINDOWS KITS\10\LIB\10.0.22621.0\UM\X86\COMDLG32.LIB
D:\WINDOWS KITS\10\LIB\10.0.22621.0\UM\X86\ADVAPI32.LIB
D:\WINDOWS KITS\10\LIB\10.0.22621.0\UM\X86\SHELL32.LIB
D:\WINDOWS KITS\10\LIB\10.0.22621.0\UM\X86\OLE32.LIB
D:\WINDOWS KITS\10\LIB\10.0.22621.0\UM\X86\OLEAUT32.LIB
D:\WINDOWS KITS\10\LIB\10.0.22621.0\UM\X86\UUID.LIB
D:\WINDOWS KITS\10\LIB\10.0.22621.0\UM\X86\ODBC32.LIB
D:\WINDOWS KITS\10\LIB\10.0.22621.0\UM\X86\ODBCCP32.LIB
E:\DEV\__REPOSITORY__\_MM8_PLUGINS\MAW_FIXES\RELEASE\DLLMAIN.OBJ
E:\DEV\__REPOSITORY__\_MM8_PLUGINS\MAW_FIXES\RELEASE\PCH.OBJ
C:\WINDOWS\GLOBALIZATION\SORTING\SORTDEFAULT.NLS
C:\PROGRAM FILES\MICROSOFT VISUAL STUDIO\2022\COMMUNITY\VC\TOOLS\MSVC\14.38.33130\BIN\HOSTX86\X86\C2.DLL
C:\PROGRAM FILES\MICROSOFT VISUAL STUDIO\2022\COMMUNITY\VC\TOOLS\MSVC\14.38.33130\LIB\X86\MSVCPRT.LIB
C:\PROGRAM FILES\MICROSOFT VISUAL STUDIO\2022\COMMUNITY\VC\TOOLS\MSVC\14.38.33130\LIB\X86\MSVCRT.LIB
C:\PROGRAM FILES\MICROSOFT VISUAL STUDIO\2022\COMMUNITY\VC\TOOLS\MSVC\14.38.33130\LIB\X86\OLDNAMES.LIB
C:\PROGRAM FILES\MICROSOFT VISUAL STUDIO\2022\COMMUNITY\VC\TOOLS\MSVC\14.38.33130\LIB\X86\VCRUNTIME.LIB
D:\WINDOWS KITS\10\LIB\10.0.22621.0\UCRT\X86\UCRT.LIB
C:\PROGRAM FILES\MICROSOFT VISUAL STUDIO\2022\COMMUNITY\VC\TOOLS\MSVC\14.38.33130\BIN\HOSTX86\X86\1033\LINKUI.DLL
C:\PROGRAM FILES\MICROSOFT VISUAL STUDIO\2022\COMMUNITY\VC\TOOLS\MSVC\14.38.33130\BIN\HOSTX86\X86\CVTRES.EXE
C:\PROGRAM FILES\MICROSOFT VISUAL STUDIO\2022\COMMUNITY\VC\TOOLS\MSVC\14.38.33130\BIN\HOSTX86\X86\MSPDBSRV.EXE
C:\WINDOWS\SYSTEM32\TZRES.DLL
