^E:\DEV\__REPOSITORY__\_MM8_PLUGINS\SKILLZ\PCH.CPP
/c /Zi /nologo /W3 /WX- /diagnostics:column /sdl /Od /Oi /Oy- /GL /D WIN32 /D NDEBUG /D SKILLZ_EXPORTS /D _WINDOWS /D _USRDLL /D _WINDLL /D _UNICODE /D UNICODE /Gm- /EHsc /MD /GS /Gy /fp:precise /Zc:wchar_t /Zc:forScope /Zc:inline /std:c++17 /permissive- /Yc"pch.h" /Fp"RELEASE\SKILLZ.PCH" /Fo"RELEASE\\" /Fd"RELEASE\VC143.PDB" /external:W3 /Gd /TP /analyze- /FC E:\DEV\__REPOSITORY__\_MM8_PLUGINS\SKILLZ\PCH.CPP
^E:\DEV\__REPOSITORY__\_MM8_PLUGINS\SKILLZ\DLLMAIN.CPP
/c /Zi /nologo /W3 /WX- /diagnostics:column /sdl /Od /Oi /Oy- /GL /D WIN32 /D NDEBUG /D SKILLZ_EXPORTS /D _WINDOWS /D _USRDLL /D _WINDLL /D _UNICODE /D UNICODE /Gm- /EHsc /MD /GS /Gy /fp:precise /Zc:wchar_t /Zc:forScope /Zc:inline /std:c++17 /permissive- /Yu"pch.h" /Fp"RELEASE\SKILLZ.PCH" /Fo"RELEASE\\" /Fd"RELEASE\VC143.PDB" /external:W3 /Gd /TP /analyze- /FC E:\DEV\__REPOSITORY__\_MM8_PLUGINS\SKILLZ\DLLMAIN.CPP
^E:\DEV\__REPOSITORY__\_MM8_PLUGINS\SKILLZ\SETTINGS.CPP
/c /Zi /nologo /W3 /WX- /diagnostics:column /sdl /Od /Oi /Oy- /GL /D WIN32 /D NDEBUG /D SKILLZ_EXPORTS /D _WINDOWS /D _USRDLL /D _WINDLL /D _UNICODE /D UNICODE /Gm- /EHsc /MD /GS /Gy /fp:precise /Zc:wchar_t /Zc:forScope /Zc:inline /std:c++17 /permissive- /Yu"pch.h" /Fp"RELEASE\SKILLZ.PCH" /Fo"RELEASE\\" /Fd"RELEASE\VC143.PDB" /external:W3 /Gd /TP /analyze- /FC E:\DEV\__REPOSITORY__\_MM8_PLUGINS\SKILLZ\SETTINGS.CPP
